*** Variables ***
${SELENIUM_TIME_OUT}    120
${SELENIUM_SPEED}    0.45
${BSUser}   monikakrawiec3
${AccessKey}   *************
${RemoteUrl}   http://${BSUser}:${AccessKey}@hub.browserstack.com/wd/hub
${DC}    os:Windows,browser:chrome
${ccep_password}    ***********
${password_old}   *********
${salesforce_user}    monika.krawiec@successyou.de
${salesforce_password}    ********
#${salesforce_user}    monika.krawiec@cokecce.com.ecpt
#${salesforce_password}    *********
